22

9
mLkKL6Wo-99601532
P55Ulgq7-28640611
i384v6Lg-50225935
BJ_TUbkC-28596572
IXyF2_h_-62054862
WMmcSyWr-29627301
toMmK6nD-01455729
Xv8ECVRV-31937655
CT7FQOz0-20578586
3 8 6 9 7 4 1 2 5
2 5 1 7 8 4 9 3 6

5
sOaDY8pn-57851476
xndJi6Mx-41778821
OOxeS9Ah-04915430
vE8ociGA-81986093
j72UsgYJ-58425723
2 5 3 1 4
3 2 4 1 5
2 4 5 3 1
5 1 2 4 3
1 4 3 2 5
2 1 3 4 5

10
_TDQfjuy-13997358
dcoHP9Xt-57503449
v6sh5d7o-69804924
jD8lxHqb-41271474
PhJMyj_H-77007580
EhAVeV7u-88985648
b509JDWu-78471665
SMi6yZF1-12833852
4GOvTDz_-51111090
H0JckNcs-31725764
1 10 7 2 8 5 3 6 9 4
7 4 1 6 9 10 2 8 5 3
10 2 8 6 1 4 9 3 5 7
10 4 9 8 7 1 6 3 2 5

9
9DDgoMH3-05539560
7UMQ6Hoy-54832190
BTnRnwPx-44912083
v4UAF8wi-29480590
IXyHhSBS-13756124
wajULGHU-66446763
Jwf8JqlY-70593871
xkXo_C7T-32506430
M25GX2eK-46178765
4 6 9 3 1 5 7 2 8
3 2 4 8 9 7 1 6 5
3 2 4 9 6 8 1 7 5
7 9 8 4 6 2 1 3 5
6 8 1 5 2 9 7 4 3
4 8 7 3 2 6 5 1 9
3 1 2 6 5 7 4 9 8
9 8 1 5 4 7 2 6 3

7
P8M91MY_-95761013
qTXx5aOq-40151122
TtZttHLC-76553953
dfGyFKjs-12943265
OOwL2MJq-76101997
u1Dki17F-41460345
oGotHdGt-94471848
1 5 6 3 2 4 7
5 2 4 1 3 6 7
1 6 3 2 5 4 7
2 6 5 7 3 1 4
2 7 5 6 4 1 3

7
eaWKm1LQ-44386130
9rZGBP4P-84510284
Gnon_86Z-04862008
BAPJ4Cx3-35684641
Wa1aMUBY-38463363
IxjCN8Ss-18805579
O5c15YPV-98642652
2 6 5 4 1 7 3
6 4 7 3 2 1 5
3 2 4 6 7 1 5
6 1 4 2 7 3 5
7 6 1 3 2 5 4
3 2 7 5 4 1 6
1 3 2 5 7 4 6
3 5 6 1 7 2 4
1 4 2 7 6 5 3

2
vl66DFCx-10734176
vjcQuwbi-66741425
1 2

9
o051yxOw-14125698
x6Inevmt-23279392
Ce651ti5-72350313
wL5gDkzA-99681100
WVxrypix-06934851
6nHXWShh-06436663
J9tFuqee-32004820
tPgLTPZl-42369946
zfOVnUNi-00659697
9 2 8 3 4 6 7 1 5
9 1 8 4 7 5 6 2 3
8 1 7 9 2 6 3 4 5

4
02lzrp0A-55605294
ltNCGeu6-60281700
S0a2bQyG-42375282
NtDLV1gm-95565899
1 2 3 4
4 2 3 1
1 3 2 4
2 4 3 1
2 1 3 4
1 2 3 4
2 3 1 4
4 1 2 3

8
LSsPxrT1-71049561
9Oir8wgZ-50686028
fT_YlzOg-72590981
NOARgzmp-01810028
p460x2i7-19651714
tP53J5aa-58572649
LzeIJN9o-45299146
15kc9iLV-68677658
4 1 2 3 6 5 8 7
6 2 3 1 5 7 8 4
1 7 3 5 4 6 2 8
2 1 7 3 6 5 4 8
8 3 4 7 2 5 1 6
8 1 5 6 7 3 4 2

1
TNP2AUI4-88060780
1
1
1

3
iYQDoHyl-45752778
GdBZRAN6-65957083
1xGTJngO-38048075
1 2 3
2 1 3
3 2 1
2 3 1
3 2 1
2 3 1
3 1 2

2
qOdcubHL-43204713
UsWYrJiM-99384788
2 1
1 2
1 2
1 2

7
gIpNwuKP-57029522
tIbypbk8-73258168
flRatpBJ-14187218
Y7Kkl4As-87479110
r_dmDruH-97411797
V2noEUYa-24431474
3z1fGeSr-02478356
5 4 3 6 2 1 7
5 4 6 1 3 7 2
4 1 6 5 2 7 3
5 2 4 3 6 7 1

10
1IcbPJiE-96695109
lz0SlNA4-14572699
FS2KKUDI-99981407
Llt2r2lO-79143628
ofwpvA7I-22397478
xeR6u_hR-92353396
dBfh_o3B-04355479
piYvPAxy-49792193
d8sGMgZc-91713399
FQX4AAjw-09236713
1 7 9 6 10 5 4 8 2 3
8 2 4 6 5 10 9 1 3 7
1 2 5 3 4 6 7 8 9 10
10 4 3 5 2 1 9 6 7 8
8 4 6 3 10 1 9 7 2 5
8 2 3 4 10 6 7 1 9 5
2 9 5 6 4 8 10 1 3 7
7 9 4 1 6 2 3 5 10 8
2 1 4 7 6 5 9 10 8 3
7 10 6 9 5 4 1 8 3 2

3
nftsfL9S-83544254
dV2KXiOJ-35686970
zA8IV_C3-84190684
1 2 3
3 2 1
1 2 3
1 3 2

7
YI8rABY4-52429084
1e7rSyaf-53406103
HX6slUN4-29001769
Bcp0KJWF-08963196
ukEGHF2d-66559467
SWrLF6q_-49829143
6btX2JMp-00944937
4 7 3 2 5 6 1
3 2 5 1 7 6 4
4 6 5 7 2 1 3
3 2 4 5 6 1 7
5 3 7 6 4 1 2
3 4 2 6 7 5 1
4 5 3 1 2 6 7
6 7 2 4 1 3 5
2 5 1 7 4 6 3
7 5 3 4 6 2 1

4
7L2anJ15-16025659
PikFJrAO-99673499
aJtp0Y6K-74040822
SErs_6o9-14784439
3 1 2 4

7
9Wf39gYV-37679120
o6uLB0sq-14610286
6601RCk2-93404023
rcxqoJTI-39776849
MrIDQKMr-04648406
oOKb14YT-59334072
nNXJCWG6-54759205
4 3 2 7 1 6 5
1 5 7 6 4 3 2
1 4 3 5 2 7 6
3 2 4 7 5 6 1
5 1 6 7 3 2 4
7 5 4 1 2 6 3
4 3 2 1 7 5 6

6
e2myLCxz-08180770
yGJFfXmP-45555091
2YAhJrhy-05306768
uMGk_eqH-18586352
FfgSLv2q-92655134
YYwKJ1Fa-69570677
2 4 1 5 3 6
3 4 1 2 5 6

4
WEOZV_e9-44049347
qdFj8TF4-21841145
o3n6TzJ7-20016574
GUBmX7Ex-79991555
2 1 3 4
4 3 2 1
3 1 2 4

1
oHNdWwTs-05577468
1
1
1
1
1
1
1
1
1
1
