20

7
rrnE0vqk-13053828
PSrAO0UI-02611455
q9G4lF2d-15676416
9mJpAazY-64936878
DUNiIyo1-24047694
YmWRFcol-96713717
aZiGjHGH-73646677
7 2 3 4 6 5 1
7 2 5 6 4 3 1
3 2 1 7 4 6 5
4 6 2 1 5 7 3
7 3 4 2 6 5 1
5 6 4 1 3 7 2
4 1 3 6 7 2 5
1 2 7 3 4 6 5
6 3 4 2 7 1 5
1 2 3 7 5 6 4
4 2 6 7 5 3 1
5 4 1 2 6 7 3
1 4 2 7 6 3 5
4 2 6 7 1 5 3
2 5 7 6 1 4 3
2 1 6 5 4 3 7
5 7 2 6 1 3 4
1 6 4 5 2 7 3
1 2 3 4 5 6 7
7 2 6 3 5 1 4

4
QDZjxiZx-51053587
f6bFNHDz-14792320
0kqp4IOx-83116444
YkSvTT2s-94298383
1 2 3 4

2
lACIUZmE-49749660
sd0NqPBU-59757859
2 1
1 2
2 1

5
sgfvbo0q-67577542
ddQNlKeH-95176767
qgleWP6d-44690251
g3nJ8KUD-42078524
aIQ96PxJ-14180964
3 4 1 2 5
4 2 5 3 1
3 1 5 4 2

6
yArvCt_L-32006630
FCUAOYz4-39699009
uZ7s9InT-03205375
Ywabl_uH-80832484
MpZJ5ika-37220668
6wodwYof-32231272
6 5 2 1 4 3
1 2 3 5 4 6
3 6 2 1 4 5
1 5 3 4 6 2
2 5 6 1 3 4
5 6 1 4 2 3
1 2 3 6 4 5
4 6 5 3 1 2
1 2 3 4 6 5
1 2 3 4 6 5

1
N5jlQ36e-66771718
1
1
1

6
odsvjjnW-21866961
SCeKamQ7-60743704
IpOaWDAN-16705295
fctxAcR0-01312420
vITLcI_l-58290558
N98wufOl-50097327
6 3 2 4 5 1
1 2 3 4 5 6
2 1 5 3 4 6
2 5 6 3 4 1
1 3 5 2 4 6
1 2 3 5 4 6
6 4 1 2 3 5
4 2 5 6 1 3
5 4 3 6 1 2
1 6 4 2 3 5
4 6 3 1 5 2
1 2 3 4 5 6
2 4 6 5 1 3

4
AMihV8BF-55469952
7cqTEB2F-19910676
2i5hcjAU-70713062
nydtlLqW-93402106
3 1 2 4
1 4 3 2
2 4 1 3

6
kP54INbS-61809398
UYzRxQZU-68842618
DF1njT4z-48827196
xIEqatKL-13260083
VngHzzd0-04837434
QF53gTZC-79058120
2 5 3 1 4 6
1 3 5 2 4 6
6 3 1 4 2 5
2 6 4 5 1 3
5 1 6 3 4 2
3 4 2 1 5 6
5 1 4 6 2 3
1 6 4 3 2 5
1 2 6 4 5 3
2 5 6 1 3 4
3 2 4 5 1 6
3 5 1 6 2 4
4 2 5 3 6 1

4
wlyBOZ40-27189963
bTHko30S-69868348
6ubFejeJ-16792691
PzwD8Noz-99650720
4 1 3 2
2 4 1 3
3 2 1 4
2 1 4 3
2 1 3 4
3 1 2 4
1 3 2 4
3 2 4 1
1 3 2 4

2
S7yld7YF-59872265
XZSfvPTu-67465490
1 2
1 2
2 1
2 1
1 2

3
iwvQZzz6-57907910
mIy6FjiQ-05649609
uIxeX0kd-72368713
3 2 1
3 1 2
3 2 1
2 1 3
1 2 3
3 2 1
1 3 2

5
jpgpv_JW-37801631
HlYC0ju3-40968610
a56jItZ6-81893525
tS_Q7BG5-16576336
K9QXmqL_-97980404
3 4 1 5 2
5 1 4 3 2
1 3 2 4 5
1 2 3 4 5
3 2 5 4 1
1 2 5 3 4
4 1 2 5 3
3 5 1 4 2
2 4 1 3 5
2 4 1 5 3
4 3 2 5 1
1 2 3 4 5

6
5o1a7DNy-91693046
pfx0quht-24759943
b6WUDKYu-38805681
yTkgInaU-58811661
KcJZpRs6-86923579
SaAa1l1J-10685835
1 3 6 5 2 4
5 2 3 6 4 1

6
BWgM2_2V-29831901
4PH1kIi1-97786695
HSoH2WVP-41345773
Q6z0SyRZ-87041668
X3NaF1eS-51283183
fw0SnTMk-39893816
5 1 4 2 3 6
2 6 5 3 4 1
4 3 6 1 2 5
4 5 2 1 6 3

5
bFQoQa1J-50288710
TBHqxUSm-13076305
FWQIQQoK-50950030
qLUZLbxs-33783502
EelABuhS-97628531
3 1 5 4 2

5
mTD4C8bD-22198048
OZnhOv28-71245814
WCI4Iqer-27611944
PKZodcR3-60839631
26DtzIW_-53479710
2 1 5 3 4
1 2 3 4 5
4 5 1 3 2
4 3 5 1 2

7
XxXdbOWE-70955812
xA835xhF-68477860
dY0jvMIG-75444639
HSiOGlXj-00893024
35re9bk1-84533697
D1IhCHKQ-28608927
IQjkYIWO-21575424
7 2 5 3 1 4 6
6 3 4 5 2 7 1
3 6 1 4 5 7 2
1 2 6 5 7 4 3
4 7 1 3 5 6 2

5
pGgR4R8B-56349876
QvVy5QOf-94754243
Oek2RmPc-37887454
ehhHSbkC-70509228
uGkPq87d-05803663
2 1 3 4 5
1 2 3 4 5
4 3 2 1 5
2 5 3 4 1
1 2 3 5 4
2 1 3 4 5
2 3 1 5 4

3
2tntvfL3-87505696
_EYDz6X8-51983612
LUsEtnxl-72683775
2 3 1
1 3 2
2 3 1
3 2 1
1 3 2
2 1 3
1 2 3
3 1 2
3 2 1
3 2 1
2 3 1
2 1 3
